<?xml version="1.0" standalone="no"?>
<!DOCTYPE svg PUBLIC "-//W3C//DTD SVG 1.1//EN" "http://www.w3.org/Graphics/SVG/1.1/DTD/svg11.dtd">
<svg xmlns="http://www.w3.org/2000/svg">
<metadata>Copyright (C) 2018 by original authors @ fontello.com</metadata>
<defs>
<font id="fontello" horiz-adv-x="1000" >
<font-face font-family="fontello" font-weight="400" font-stretch="normal" units-per-em="1000" ascent="850" descent="-150" />
<missing-glyph horiz-adv-x="1000" />
<glyph glyph-name="menu" unicode="&#xe800;" d="M885 38l-729 0q-21 0-37-16t-15-37 15-36 37-15l729 0q21 0 37 15t16 36-16 37-37 16z m0 104q65 0 111-46t45-111-45-110-111-46l-729 0q-65 0-110 46t-46 110 46 111 110 46l729 0z m0 261l-729 0q-21 0-37-16t-15-37 15-37 37-15l729 0q21 0 37 15t16 37-16 37-37 16z m0 104q65 0 111-46t45-111-45-110-111-46l-729 0q-65 0-110 46t-46 110 46 111 110 46l729 0z m0 260l-729 0q-21 0-37-15t-15-37 15-37 37-15l729 0q21 0 37 15t16 37-16 37-37 15z m0 105q65 0 111-46t45-111-45-110-111-46l-729 0q-65 0-110 46t-46 110 46 111 110 46l729 0z" horiz-adv-x="1041" />

<glyph glyph-name="facebook" unicode="&#xf09a;" d="M535 843v-147h-87q-48 0-65-20t-17-60v-106h164l-22-165h-142v-424h-171v424h-142v165h142v122q0 104 58 161t155 57q82 0 127-7z" horiz-adv-x="571.4" />

<glyph glyph-name="youtube" unicode="&#xf166;" d="M513 123v88q0 27-16 27-10 0-19-8v-125q9-9 19-9 16 0 16 27z m103 68h36v19q0 28-18 28t-18-28v-19z m-319 148v-39h-45v-236h-41v236h-44v39h130z m112-70v-205h-37v23q-22-25-43-25-18 0-23 15-3 10-3 30v162h36v-151q0-13 1-14 0-8 8-8 11 0 24 17v156h37z m141-62v-81q0-29-4-41-7-23-30-23-19 0-38 22v-20h-37v275h37v-89q18 22 38 22 23 0 30-24 4-11 4-41z m140-72v-5q0-16-1-24-2-12-9-22-15-22-44-22-29 0-46 21-11 15-11 48v72q0 33 11 48 16 21 45 21t43-21q12-16 12-48v-43h-74v-36q0-28 19-28 13 0 16 14 0 1 1 4t0 9v12h38z m-252 460v-87q0-28-18-28t-18 28v87q0 29 18 29t18-29z m298-398q0 99-11 145-6 25-24 41t-42 20q-76 8-230 8-154 0-230-8-24-3-42-20t-24-41q-11-48-11-145 0-98 11-145 5-24 24-41t42-19q76-9 230-9t230 9q24 2 42 19t23 41q12 47 12 145z m-422 363l50 166h-41l-29-109-29 109h-44q4-13 13-39l13-38q20-58 26-89v-112h41v112z m161-45v73q0 32-11 48-16 22-44 22-28 0-43-22-12-16-12-48v-73q0-32 12-48 15-22 43-22 28 0 44 22 11 15 11 48z m102-67h37v207h-37v-158q-13-17-24-17-8 0-9 8 0 2 0 15v152h-38v-164q0-20 4-30 6-16 24-16 20 0 43 26v-23z m280 170v-536q0-66-47-113t-114-48h-535q-67 0-114 48t-47 113v536q0 66 47 113t114 48h535q67 0 114-48t47-113z" horiz-adv-x="857.1" />

<glyph glyph-name="left" unicode="&#xf177;" d="M1000 404v-108q0-7-5-12t-13-5h-696v-125q0-12-11-17t-19 3l-215 196q-5 5-5 12 0 8 5 14l215 197q9 8 19 4 11-5 11-17v-125h696q8 0 13-5t5-12z" horiz-adv-x="1000" />
</font>
</defs>
</svg>